﻿keyword,value1,value2,option,memo,searchKeyword,rank1,rank2
플린 극세사 세차 타월,28645761589,82533655230,,,,1P1위,1P1위
플렌티 세차 버킷 물통,28891933426,82612402895,,,,1P1위,1P1위
월드크린 빗자루 쓰레받기 세트,28904165100,81677360888,,,,1P1위,1P1위
무지개 밀대 막대 대 걸레 두툼 극세사 패드 40cm,29019636083,82201416735,,,,1P2위,1P1위
대걸레 밀대 극세사 마포 마대 걸레,80972655422,,,,,1P1위,
빗자루 쓰레받기 세트 싸리 수수 돈모방비 대 미용실 갈대비 긴 롱 수수비 마당비 플라스틱 학교 방 거실 청소 갈대 업소용 매장용 실내 실외 마당 싸리비 셋트 말총 돈모비,81623392171,,,,,1P1위,
니트릴 라텍스 장갑,81751610872,,,,,1P1위,
극세사 밀대 걸레 대걸레 찍찍이,82123783728,,,,,1P20위,
주방 수세미 철 장죽 울스텐 스폰지 스펀지 청소 3M 쓰리엠 천연 펄프 스텐 수세미,82221163936,,,,,,
통돌이 회전 걸레 핸드 스핀 바닥 청소 극세사 마포,82240617487,,,,,,
다용도 바닥 청소솔 철 쇠 철 솔 창틀 화장실 욕실 스텐 브러쉬 녹 제거 틈새 강력 실리콘 주방 손잡이 헤라 땅콩 칫솔 신주 철판 롱 긴,82909178847,,,,,,
세차 브러쉬 휠 타이어 디테일링 솔,83512194175,,,,,,
백합조개 바지락살 생합,82619538061,,,,,,
통영 홍가리비 1kg 철 대왕 왕가리비 황금 집에서 참 가리비 찜 구이 캠핑,82667112832,,,,,,
새꼬막 꼬막제철,82751041383,,,,,,
문어 활문어 돌문어시세,83622565009,,,,,,
가자미 참가자미 1kg,83664199935,,,,,,
곰팡이 제로 골드 500ml 제거제 욕실 벽 벽지 세제 실리콘 화장실 창틀 곰팡이젤 제거,82201448859,,,,,,
욕실청소기,82464324081,,,,,,
전동면도기,83296703737,,,,,,
여성목폴라 세미크롭 벌룬소매 골지폴라 퍼프 루즈핏니트 터틀넥니트,83527980184,,,,,,
가자미구이 참가자미 제수용생선,83643267343,,,,,,
칠라릴라 차량용 방향제 송풍구 디퓨저,82982330250,,,,,,
삭힌 홍어 찜용 날개살 700g 홍어찜 제수용 제사상홍어 찜홍어,80480895216,,,,,,
벌교 참꼬막 1kg 꼬막철 새꼬막 꼬막살 여수 비빔밥 순천 알꼬막 시세,83846134747,,,,,,
바다 장어 1kg 붕장어 통영 자연산 아나고 세꼬시 손질 구이 국산 바닷장어,83846338035,,,,,,
건새우 밥새우 200g 이유식 국산 곤쟁이 말린 크릴새우 주먹밥,82841257103,,,,,,
육수용 건새우 건 딱새우 250g 마른 가시발 말린 딱 국산,82831327471,,,,,,
꼬리뼈 아귀포 250g 국산 삼천포 쥐포 맥주안주 주전부리 말린 마른아귀포,83000470865,,,,,,
